{
	"id": "gigadrill",
	"versions": [
		{
			"name": "Gigadrill",
			"type": "structure",
			"subtypes": [
				"drill"
			],
			"stats": {
				"atk": 3,
				"speed": 2,
				"hp": 6,
				"cost": 5,
				"gems": {
					"blue": 4
				}
			},
			"desc": "At full speed, generates one blue gem at the end of your turns. Can attack.",
			"unit_event_listeners": [
				"end_turn"
			],
			"special_scripts": [
				"can_attack"
			]
		}
	]
}