{
	"id": "pack_lizard",
	"versions": [
		{
			"name": "Pack Lizard",
			"type": "creature",
			"subtypes": ["lizard"],
			"stats": {
				"atk": 2,
				"speed": 2,
				"hp": 3,
				"cost": 2,
				"gems": {
					"red": 1
				}
			},
			"desc": "Has +1 attack for each adjacent lizard.",
			"unit_event_listeners": [
				"unit_moved",
				"unit_appeared",
				"unit_disappeared"
			]
		}
	]
}