{
	"id": "shield_automaton",
	"versions": [
		{
			"name": "Shield Automaton",
			"type": "creature",
			"subtypes": ["automaton"],
			"stats": {
				"atk": 3,
				"speed": 2,
				"hp": 5,
				"cost": 3,
				"gems": {
					"blue": 1,
					"neutral": 1
				}
			},
			"desc": "Can only move once per turn.",
			"unit_event_listeners": [
				"unit_moved",
				"really_change_turn",
				"unit_appeared"
			],
			"special_scripts": [
				"can_move"
			],
			"flavor": "Meatier than most automatons. Figuratively speaking."
		}
	]
}
