{
	"id": "stone_golem",
	"versions": [
		{
			"name": "Stone Golem",
			"type": "creature",
			"subtypes": ["golem"],
			"stats": {
				"atk": 3,
				"speed": 2,
				"hp": 4,
				"cost": 4,
				"gems": {
					"neutral": 1
				}
			},
			"unit_event_listeners": ["sacced_card"],
			"desc": "Whenever you sacrifice for neutral, this gains +1 attack and health."
		}
	]
}
